68,333,0,100
65,333,0,100
65,333,0,100
66,333,0,100
63,333,0,100
63,333,0,100
61,167,0,100
65,167,0,100
68,667,0,100
68,333,0,100
65,333,0,100
65,333,0,100
66,333,0,100
63,333,0,100
63,333,0,100
61,167,0,100
65,167,0,100
61,667,0,100
